{
  "$schema": "https://deno.land/x/denon/schema.json",
  "scripts": {
    "start": {
      "cmd": "deno run main.ts",
      "desc": "Run the server.",
      "allow": [
        "env",
        "net",
        "read",
        "write",
        "run"
      ]
    }
  },
  "watcher": {
    "interval": 350,
    "exts": ["js", "jsx", "ts", "tsx", "json"],
    "match": ["**/*.*"],
    "skip": ["*/.git/*"],
    "legacy": false
  },
  "logger": {
    "fullscreen": false,
    "quiet": false,
    "debug": true
  }
}